test\test.h	2
markgc.cpp	2
runtime\objcrt.c	1
test\synchronized-grid.m	1
runtime\maptable.mm	1
runtime\OldClasses.subproj\List.m	1
test\synchronized-counter.m	1
runtime\objc-exception.mm	1
test\resolve.m	1
test\unload.m	1
runtime\objc-layout.mm	1
runtime\Object.mm	1
runtime\Protocol.mm	1
test\load-parallel0.m	1
test\concurrentcat.m	1
